[
    {
        "title": "Do my homework",
        "content": "JS homework and database homework",
        "important": false
    },{
        "title": "Buy flowers for BAE",
        "content": "A lot of red roses",
        "important": true
    },{
        "title": "Review exam",
        "content": "Exam is next thursday",
        "important": false
    }
]